SPIQuadCopter/src/wb_serial_dshot_mux_tb.vcd
$date
	Sun Dec 14 20:08:33 2025
$end
$version
	Icarus Verilog
$end
$timescale
	1ps
$end
$scope module wb_serial_dshot_mux_tb $end
$var wire 4 ! pad_motor [3:0] $end
$var wire 1 " wb_stall_o $end
$var wire 32 # wb_dat_o [31:0] $end
$var wire 1 $ wb_ack_o $end
$var wire 1 % serial_rx_o $end
$var reg 4 & dshot_in [3:0] $end
$var reg 1 ' esc_drive_en $end
$var reg 4 ( esc_drive_val [3:0] $end
$var reg 1 ) serial_oe_i $end
$var reg 1 * serial_tx_i $end
$var reg 2 + tb_mux_force_ch [1:0] $end
$var reg 1 , tb_mux_force_en $end
$var reg 1 - tb_mux_force_sel $end
$var reg 32 . wb_adr_i [31:0] $end
$var reg 1 / wb_clk $end
$var reg 1 0 wb_cyc_i $end
$var reg 32 1 wb_dat_i [31:0] $end
$var reg 1 2 wb_rst $end
$var reg 4 3 wb_sel_i [3:0] $end
$var reg 1 4 wb_stb_i $end
$var reg 1 5 wb_we_i $end
$scope begin ESC_DRIVE[0] $end
$var wire 1 6 pad_tri $end
$var parameter 2 7 gi $end
$upscope $end
$scope begin ESC_DRIVE[1] $end
$var wire 1 8 pad_tri $end
$var parameter 2 9 gi $end
$upscope $end
$scope begin ESC_DRIVE[2] $end
$var wire 1 : pad_tri $end
$var parameter 3 ; gi $end
$upscope $end
$scope begin ESC_DRIVE[3] $end
$var wire 1 < pad_tri $end
$var parameter 3 = gi $end
$upscope $end
$scope module dut $end
$var wire 4 > dshot_in [3:0] $end
$var wire 4 ? pad_motor [3:0] $end
$var wire 4 @ pad_motor_in [3:0] $end
$var wire 1 A sel $end
$var wire 1 ) serial_oe_i $end
$var wire 1 * serial_tx_i $end
$var wire 2 B tb_mux_force_ch [1:0] $end
$var wire 1 C tb_mux_force_en $end
$var wire 1 D tb_mux_force_sel $end
$var wire 32 E wb_adr_i [31:0] $end
$var wire 1 / wb_clk_i $end
$var wire 1 0 wb_cyc_i $end
$var wire 32 F wb_dat_i [31:0] $end
$var wire 1 2 wb_rst_i $end
$var wire 4 G wb_sel_i [3:0] $end
$var wire 1 " wb_stall_o $end
$var wire 1 4 wb_stb_i $end
$var wire 1 5 wb_we_i $end
$var wire 1 % serial_rx_o $end
$var reg 2 H effective_mux_ch [1:0] $end
$var reg 1 I effective_mux_sel $end
$var reg 1 J global_tristate $end
$var reg 2 K mux_ch [1:0] $end
$var reg 1 L mux_sel $end
$var reg 2 M prev_mux_ch [1:0] $end
$var reg 1 N prev_mux_sel $end
$var reg 1 O serial_rx_meta $end
$var reg 1 P serial_rx_sync $end
$var reg 1 $ wb_ack_o $end
$var reg 32 Q wb_dat_o [31:0] $end
$scope begin gen_pads[0] $end
$var wire 1 R dshot_val $end
$var wire 1 S is_target $end
$var parameter 2 T i $end
$var reg 1 U pad_oe $end
$var reg 1 V pad_out $end
$upscope $end
$scope begin gen_pads[1] $end
$var wire 1 W dshot_val $end
$var wire 1 X is_target $end
$var parameter 2 Y i $end
$var reg 1 Z pad_oe $end
$var reg 1 [ pad_out $end
$upscope $end
$scope begin gen_pads[2] $end
$var wire 1 \ dshot_val $end
$var wire 1 ] is_target $end
$var parameter 3 ^ i $end
$var reg 1 _ pad_oe $end
$var reg 1 ` pad_out $end
$upscope $end
$scope begin gen_pads[3] $end
$var wire 1 a dshot_val $end
$var wire 1 b is_target $end
$var parameter 3 c i $end
$var reg 1 d pad_oe $end
$var reg 1 e pad_out $end
$upscope $end
$upscope $end
$scope task force_mux $end
$upscope $end
$scope task release_mux $end
$upscope $end
$scope task test_dshot_to_passthrough_handover $end
$upscope $end
$scope task test_non_target_tri_state $end
$upscope $end
$scope task test_rapid_toggle_stress $end
$upscope $end
$scope task test_serial_rx_synchronizer $end
$upscope $end
$scope task wb_read_mux $end
$upscope $end
$scope task wb_write_mux $end
$upscope $end
$upscope $end
$enddefinitions $end
$comment Show the parameter values. $end
$dumpall
b11 c
b10 ^
b1 Y
b0 T
b11 =
b10 ;
b1 9
b0 7
$end
#0
$dumpvars
0e
0d
xb
0a
0`
0_
x]
0\
0[
0Z
xX
0W
0V
0U
xS
0R
bx Q
0P
0O
0N
b0 M
xL
bx K
0J
xI
bx H
b1111 G
b0 F
b0 E
xD
xC
bx B
0A
bz @
bz ?
b0 >
z<
z:
z8
z6
05
04
b1111 3
12
b0 1
00
0/
b0 .
x-
x,
bx +
0*
0)
b0 (
0'
b0 &
0%
x$
bx #
0"
bz !
$end
#5000
b0 #
b0 Q
0$
b0 K
0L
1/
#10000
0/
#15000
1/
#20000
0/
#25000
1/
#30000
0/
#35000
1/
#40000
0/
#45000
1/
#50000
0/
#55000
1/
#60000
0/
#65000
1/
#70000
0/
#75000
1/
#80000
0/
#85000
1/
#90000
0/
#95000
1/
#100000
0/
02
#105000
xO
1/
#110000
0/
#115000
x%
xP
1/
#120000
0/
#125000
1/
#130000
0/
#135000
1/
#140000
0/
#145000
1/
#150000
0/
#155000
1/
#160000
0/
#165000
1/
#170000
0/
#175000
1/
#180000
0/
#185000
1/
#190000
0/
#195000
1/
#200000
1\
0/
b10 B
b10 +
1D
1-
1C
1,
b100 &
b100 >
#205000
zO
b10 M
1N
1J
bz @
bz !
bz ?
0%
1U
1Z
1_
1`
1d
0S
0X
1]
0b
b10 H
1I
1/
#210000
0/
#215000
0N
zP
z%
0U
0Z
0`
0d
0I
0D
0-
1)
1/
#220000
0/
#225000
bz0zz @
bz0zz !
bz0zz ?
0J
1/
#230000
0/
#235000
0O
1/
#240000
0/
#245000
0%
0P
1/
#250000
0/
#255000
b0 M
1J
bz @
bz !
bz ?
1U
0_
1S
0]
b0 H
0C
0,
1/
#260000
0/
#265000
zO
b1 M
0U
1Z
0S
1X
b1 H
b1 B
b1 +
1C
1,
1/
#270000
0/
#275000
bz0z @
bz0z !
bz0z ?
z%
0J
zP
1/
#280000
0/
#285000
0O
bz1z @
bz1z !
bz1z ?
1[
1*
1/
#290000
0/
#295000
0%
b0 M
1J
0P
1O
bz @
bz !
bz ?
1U
1V
0Z
0[
1S
0X
b0 H
0C
0,
1/
#300000
0/
#305000
bz1 @
bz1 !
bz1 ?
1%
1P
zO
0J
b0 B
b0 +
1C
1,
1/
#310000
0/
#315000
z%
zP
1O
1/
#320000
0/
#325000
1%
1P
bz1 @
bz1 !
bz1 ?
16
0U
b1 (
1'
0)
1/
#330000
0/
#335000
1/
#340000
0/
#345000
1/
#350000
0/
#355000
1N
1J
bz1 @
bz1 !
bz1 ?
0%
1U
0V
1Z
1_
1`
1d
1I
1D
1-
1/
#360000
0/
#365000
b10x @
b10x !
b10x ?
0J
1/
#370000
0/
#375000
xO
1/
#380000
0/
#385000
xP
0N
1J
bz @
bz !
bz ?
x%
z6
0U
1V
0Z
0_
0`
0d
0I
0C
0,
b0 (
0'
1/
#390000
0/
#395000
bz1 @
bz1 !
bz1 ?
0J
zO
1U
0\
1a
0D
0-
1C
1,
1)
b1000 &
b1000 >
1/
#400000
0/
#405000
z%
zP
1O
1/
#410000
0/
#415000
1%
1P
1/
#420000
0/
#425000
0C
0,
1/
#430000
0/
#435000
b1 M
1N
1J
bz @
bz !
bz ?
0%
0V
1Z
1_
1d
1e
0S
1X
b1 H
1I
b1 B
b1 +
1D
1-
1C
1,
1/
#440000
0/
#445000
b1000 @
b1000 !
b1000 ?
zO
0J
1/
#450000
0/
#455000
zP
0O
1/
#460000
0/
#465000
0P
b0 M
0N
1J
bz @
bz !
bz ?
0%
1V
0Z
0_
0d
0e
1S
0X
b0 H
0I
0C
0,
1/
#470000
0/
#475000
b10 M
zO
0U
0V
1_
1`
0S
1]
b10 H
b10 B
b10 +
0D
0-
1C
1,
1/
#480000
0/
#485000
bz1zz @
bz1zz !
bz1zz ?
z%
zP
0J
1/
#490000
0/
#495000
1O
1/
#500000
0/
#505000
1%
1P
zO
b0 M
1J
bz @
bz !
bz ?
1U
1V
0_
0`
1S
0]
b0 H
0C
0,
1/
#510000
0/
#515000
b11 M
1N
zP
0%
0V
1Z
1_
1d
1e
0S
1b
b11 H
1I
b11 B
b11 +
1D
1-
1C
1,
1/
#520000
0/
#525000
b1000 @
b1000 !
b1000 ?
0J
1/
#530000
0/
#535000
1O
1/
#540000
0/
#545000
1P
0O
b0 M
0N
1J
bz @
bz !
bz ?
1%
1V
0Z
0_
0d
0e
1S
0b
b0 H
0I
0C
0,
1/
#550000
0/
#555000
bz1 @
bz1 !
bz1 ?
0%
0J
0P
zO
b0 B
b0 +
0D
0-
1C
1,
1/
#560000
0/
#565000
z%
zP
1O
1/
#570000
0/
#575000
1%
1P
1/
#580000
0/
#585000
0C
0,
1/
#590000
0/
#595000
b1 M
1N
1J
bz @
bz !
bz ?
0%
0V
1Z
1_
1d
1e
0S
1X
b1 H
1I
b1 B
b1 +
1D
1-
1C
1,
1/
#600000
0/
#605000
b1000 @
b1000 !
b1000 ?
zO
0J
1/
#610000
0/
#615000
zP
0O
1/
#620000
0/
#625000
0P
b0 M
0N
1J
bz @
bz !
bz ?
0%
1V
0Z
0_
0d
0e
1S
0X
b0 H
0I
0C
0,
1/
#630000
0/
#635000
b10 M
zO
0U
0V
1_
1`
0S
1]
b10 H
b10 B
b10 +
0D
0-
1C
1,
1/
#640000
0/
#645000
bz1zz @
bz1zz !
bz1zz ?
z%
zP
0J
1/
#650000
0/
#655000
1O
1/
#660000
0/
#665000
1%
1P
zO
b0 M
1J
bz @
bz !
bz ?
1U
1V
0_
0`
1S
0]
b0 H
0C
0,
1/
#670000
0/
#675000
b11 M
1N
zP
0%
0V
1Z
1_
1d
1e
0S
1b
b11 H
1I
b11 B
b11 +
1D
1-
1C
1,
1/
#680000
0/
#685000
b1000 @
b1000 !
b1000 ?
0J
1/
#690000
0/
#695000
1O
1/
#700000
0/
#705000
1P
0O
b0 M
0N
1J
bz @
bz !
bz ?
1%
1V
0Z
0_
0d
0e
1S
0b
b0 H
0I
0C
0,
1/
#710000
0/
#715000
bz1 @
bz1 !
bz1 ?
0%
0J
0P
zO
b0 B
b0 +
0D
0-
1C
1,
1/
#720000
0/
#725000
z%
zP
1O
1/
#730000
0/
#735000
1%
1P
1/
#740000
0/
#745000
0C
0,
1/
#750000
0/
#755000
b1 M
1N
1J
bz @
bz !
bz ?
0%
0V
1Z
1_
1d
1e
0S
1X
b1 H
1I
b1 B
b1 +
1D
1-
1C
1,
1/
#760000
0/
#765000
b1000 @
b1000 !
b1000 ?
zO
0J
1/
#770000
0/
#775000
zP
0O
1/
#780000
0/
#785000
0P
b0 M
0N
1J
bz @
bz !
bz ?
0%
1V
0Z
0_
0d
0e
1S
0X
b0 H
0I
0C
0,
1/
#790000
0/
#795000
b10 M
zO
0U
0V
1_
1`
0S
1]
b10 H
b10 B
b10 +
0D
0-
1C
1,
1/
#800000
0/
#805000
bz1zz @
bz1zz !
bz1zz ?
z%
zP
0J
1/
#810000
0/
#815000
1O
1/
#820000
0/
#825000
1%
1P
zO
b0 M
1J
bz @
bz !
bz ?
1U
1V
0_
0`
1S
0]
b0 H
0C
0,
1/
#830000
0/
#835000
b11 M
1N
zP
0%
0V
1Z
1_
1d
1e
0S
1b
b11 H
1I
b11 B
b11 +
1D
1-
1C
1,
1/
#840000
0/
#845000
b1000 @
b1000 !
b1000 ?
0J
1/
#850000
0/
#855000
1O
1/
#860000
0/
#865000
1P
0O
b0 M
0N
1J
bz @
bz !
bz ?
1%
1V
0Z
0_
0d
0e
1S
0b
b0 H
0I
0C
0,
1/
#870000
0/
#875000
bz1 @
bz1 !
bz1 ?
0%
0J
0P
zO
b0 B
b0 +
0D
0-
1C
1,
1/
#880000
0/
#885000
z%
zP
1O
1/
#890000
0/
#895000
1%
1P
1/
#900000
0/
#905000
0C
0,
1/
#910000
0/
#915000
b1 M
1N
1J
bz @
bz !
bz ?
0%
0V
1Z
1_
1d
1e
0S
1X
b1 H
1I
b1 B
b1 +
1D
1-
1C
1,
1/
#920000
0/
#925000
b1000 @
b1000 !
b1000 ?
zO
0J
1/
#930000
0/
#935000
zP
0O
1/
#940000
0/
#945000
0P
b0 M
0N
1J
bz @
bz !
bz ?
0%
1V
0Z
0_
0d
0e
1S
0X
b0 H
0I
0C
0,
1/
#950000
0/
#955000
b10 M
zO
0U
0V
1_
1`
0S
1]
b10 H
b10 B
b10 +
0D
0-
1C
1,
1/
#960000
0/
#965000
bz1zz @
bz1zz !
bz1zz ?
z%
zP
0J
1/
#970000
0/
#975000
1O
1/
#980000
0/
#985000
1%
1P
zO
b0 M
1J
bz @
bz !
bz ?
1U
1V
0_
0`
1S
0]
b0 H
0C
0,
1/
#990000
0/
#995000
b11 M
1N
zP
0%
0V
1Z
1_
1d
1e
0S
1b
b11 H
1I
b11 B
b11 +
1D
1-
1C
1,
1/
#1000000
0/
#1005000
b1000 @
b1000 !
b1000 ?
0J
1/
#1010000
0/
#1015000
1O
1/
#1020000
0/
#1025000
1P
0O
b0 M
0N
1J
bz @
bz !
bz ?
1%
1V
0Z
0_
0d
0e
1S
0b
b0 H
0I
0C
0,
1/
#1030000
0/
#1035000
bz1 @
bz1 !
bz1 ?
0%
0J
0P
zO
b0 B
b0 +
0D
0-
1C
1,
1/
#1040000
0/
#1045000
z%
zP
1O
1/
#1050000
0/
#1055000
1%
1P
1/
#1060000
0/
#1065000
0C
0,
1/
#1070000
0/
#1075000
b1 M
1N
1J
bz @
bz !
bz ?
0%
0V
1Z
1_
1d
1e
0S
1X
b1 H
1I
b1 B
b1 +
1D
1-
1C
1,
1/
#1080000
0/
#1085000
b1000 @
b1000 !
b1000 ?
zO
0J
1/
#1090000
0/
#1095000
zP
0O
1/
#1100000
0/
#1105000
0P
b0 M
0N
1J
bz @
bz !
bz ?
0%
1V
0Z
0_
0d
0e
1S
0X
b0 H
0I
0C
0,
1/
#1110000
0/
#1115000
b10 M
zO
0U
0V
1_
1`
0S
1]
b10 H
b10 B
b10 +
0D
0-
1C
1,
1/
#1120000
0/
#1125000
bz1zz @
bz1zz !
bz1zz ?
z%
zP
0J
1/
#1130000
0/
#1135000
1O
1/
#1140000
0/
#1145000
1%
1P
zO
b0 M
1J
bz @
bz !
bz ?
1U
1V
0_
0`
1S
0]
b0 H
0C
0,
1/
#1150000
0/
#1155000
b11 M
1N
zP
0%
0V
1Z
1_
1d
1e
0S
1b
b11 H
1I
b11 B
b11 +
1D
1-
1C
1,
1/
#1160000
0/
#1165000
b1000 @
b1000 !
b1000 ?
0J
1/
#1170000
0/
#1175000
1O
1/
#1180000
0/
#1185000
1P
0O
b0 M
0N
1J
bz @
bz !
bz ?
1%
1V
0Z
0_
0d
0e
1S
0b
b0 H
0I
0C
0,
1/
#1190000
0/
#1195000
bz1 @
bz1 !
bz1 ?
0%
0J
0P
zO
1/
#1200000
0/
#1205000
z%
zP
1O
1/
#1210000
0/
#1215000
1%
1P
1/
