SerialWishbone/neoPXStrip/tb_wb.vcd
$date
	Thu Nov 14 11:42:33 2024
$end
$version
	Icarus Verilog
$end
$timescale
	1ns
$end
$scope module tb_wb $end
$var wire 1 ! wb_err_o $end
$var wire 1 " wb_rty_o $end
$var wire 32 # wb_dat_o [31:0] $end
$var wire 1 $ wb_ack_o $end
$var reg 1 % clk $end
$var reg 1 & reset $end
$var reg 32 ' wb_adr_i [31:0] $end
$var reg 1 ( wb_cyc_i $end
$var reg 32 ) wb_dat_i [31:0] $end
$var reg 4 * wb_sel_i [3:0] $end
$var reg 1 + wb_stb_i $end
$var reg 1 , wb_we_i $end
$scope module dut $end
$var wire 1 - debug_0 $end
$var wire 5 . debug_1 [4:0] $end
$var wire 4 / debug_2 [3:0] $end
$var wire 1 % i_clk $end
$var wire 1 & i_rst $end
$var wire 1 0 m_axis_valid $end
$var wire 1 1 s_axis_ready $end
$var wire 1 $ wb_ack_o $end
$var wire 32 2 wb_adr_i [31:0] $end
$var wire 1 ( wb_cyc_i $end
$var wire 32 3 wb_dat_i [31:0] $end
$var wire 1 ! wb_err_o $end
$var wire 1 " wb_rty_o $end
$var wire 4 4 wb_sel_i [3:0] $end
$var wire 1 + wb_stb_i $end
$var wire 1 , wb_we_i $end
$var wire 32 5 wb_dat_o [31:0] $end
$var wire 32 6 m_axis_data [31:0] $end
$var reg 1 7 ack $end
$var reg 4 8 count [3:0] $end
$var reg 32 9 o_data [31:0] $end
$var reg 1 : sendState $end
$var reg 5 ; state [4:0] $end
$var reg 1 < tvalid $end
$var reg 1 = update $end
$upscope $end
$upscope $end
$enddefinitions $end
#0
$dumpvars
0=
0<
b0 ;
0:
b11111111111111111111111111111111 9
b0 8
07
b0 6
b111111111111111111111111 5
b0 4
b110011 3
b110011 2
11
00
b0 /
b0 .
0-
0,
0+
b0 *
b110011 )
1(
b110011 '
0&
1%
0$
b111111111111111111111111 #
0"
0!
$end
#1
0%
#2
1%
#3
0%
#4
b100000 '
b100000 2
0(
1%
#5
0%
#6
1$
17
1=
1+
1,
1(
1%
#7
0%
#8
b1111111111111111111111111 #
b1111111111111111111111111 5
b1 .
b1 ;
0$
07
0+
0,
0(
1%
#9
0%
#10
1-
1:
b100001111111111111111111111111 #
b100001111111111111111111111111 5
10
1<
1%
#11
0%
#12
b10 .
b10 ;
b1 /
b1 8
0-
0:
b10111111111111111111111111 #
b10111111111111111111111111 5
00
0<
1%
#13
0%
#14
1-
1:
b100010111111111111111111111111 #
b100010111111111111111111111111 5
10
1<
1%
#15
0%
#16
b11 .
b11 ;
b10 /
b10 8
0-
0:
b11111111111111111111111111 #
b11111111111111111111111111 5
00
0<
1%
#17
0%
#18
1-
1:
b100011111111111111111111111111 #
b100011111111111111111111111111 5
10
1<
1%
#19
0%
#20
b100 .
b100 ;
b11 /
b11 8
0-
0:
b100111111111111111111111111 #
b100111111111111111111111111 5
00
0<
1%
#21
0%
#22
1-
1:
b100100111111111111111111111111 #
b100100111111111111111111111111 5
10
1<
1%
#23
0%
#24
b101 .
b101 ;
b100 /
b100 8
0-
0:
b101111111111111111111111111 #
b101111111111111111111111111 5
00
0<
1%
#25
0%
#26
1-
1:
b100101111111111111111111111111 #
b100101111111111111111111111111 5
10
1<
1%
#27
0%
#28
b110 .
b110 ;
b101 /
b101 8
0-
0:
b110111111111111111111111111 #
b110111111111111111111111111 5
00
0<
1%
#29
0%
#30
1-
1:
b100110111111111111111111111111 #
b100110111111111111111111111111 5
10
1<
1%
#31
0%
#32
b111 .
b111 ;
b110 /
b110 8
0-
0:
b111111111111111111111111111 #
b111111111111111111111111111 5
00
0<
1%
#33
0%
#34
1-
1:
b100111111111111111111111111111 #
b100111111111111111111111111111 5
10
1<
1%
#35
0%
#36
b1000 .
b1000 ;
b111 /
b111 8
0-
0:
b1000111111111111111111111111 #
b1000111111111111111111111111 5
00
0<
1%
#37
0%
#38
1-
1:
b101000111111111111111111111111 #
b101000111111111111111111111111 5
10
1<
1%
#39
0%
#40
b1001 .
b1001 ;
b1000 /
b1000 8
0-
0:
b1001111111111111111111111111 #
b1001111111111111111111111111 5
00
0<
1%
#41
0%
#42
0=
b0 /
b0 8
b111111111111111111111111 #
b111111111111111111111111 5
b0 .
b0 ;
1%
