SPIQuadCopter/version_test_output_2.txt
Running design testbench (src/tb/design_tb.sv)
iverilog -g2009 -o /tmp/tb_design.vvp src/tb/design_tb.sv spiSlave/spi_slave.sv src/pll.sv src/coredesign.sv src/uart_passthrough_bridge.sv src/wb_dshot_controller.sv src/wb_serial_dshot_mux.sv src/wb_led_controller.sv src/tang9k_top.sv pwmDecoder/pwmdecoder.v pwmDecoder/pwmdecoder_wb.v neoPXStrip/sendPx_axis_flexible.sv neoPXStrip/wb_neoPx.v version/wb_version.sv verilog-wishbone/rtl/axis_wb_master.v src/wb_mux_6.v src/spi_axis_adapter.sv dshot/dshot_out.v src/uart_tx.sv src/uart_rx.sv verilog-uart/rtl/uart_tx.v verilog-uart/rtl/uart_rx.v 
vvp /tmp/tb_design.vvp +TEST_VERSION
[INFO] T0H_CYC=22 T1H_CYC=43 BIT_PERIOD_CYC=90 LATCH_CYC=21600 GAP_CYC=14 BIT_COUNT_MAX=31
VCD info: dumpfile tb_design.vcd opened for output.

[TEST 5] Version Module Readback
[SPI TRX 0] Start transaction (shared):  READ addr=0x00000600 wdata=0x00000000
[SPI 77000] send_spi_byte (sync): TX=0xa1 msb_first=1
[SPI 413000] send_spi_byte (sync): DONE TX=0xa1 RX=0xZ0
[SPI TRX 413000] Cmd phase RX=0xZ0
[SPI 427000] send_spi_byte (sync): TX=0x00 msb_first=1
[spi_slave 427000] RX byte complete: 0xa1 cs=1
[spi_slave 441000] tx_shift_reg underflow -> sending 0x00
[spi_axis_adapter 441000] Received spi_rx_data -> forwarding to m_axis: 0xa1
[axis_wb_master 441000] INT OUTPUT byte=0xa3 state=0
[spi_axis_adapter 455000] m_axis_tdata=0xa1 m_axis_tvalid=1 m_axis_tready=1
[spi_axis_adapter 469000] spi_tx_valid=1 data=0xa3 spi_tx_ready=1 spi_busy=1 spi_cs_n=0
[axis_wb_master 469000] OUTPUT HEADER byte=0xa3
[SPI 763000] send_spi_byte (sync): DONE TX=0x00 RX=0x00
[SPI 777000] send_spi_byte (sync): TX=0x00 msb_first=1
[spi_slave 777000] RX byte complete: 0x00 cs=1
[spi_axis_adapter 791000] Received spi_rx_data -> forwarding to m_axis: 0x00
[spi_slave 791000] Loaded tx_shift_reg from holding: 0xa3
[axis_wb_master 791000] INT OUTPUT byte=0x00 state=1
[spi_axis_adapter 805000] m_axis_tdata=0x00 m_axis_tvalid=1 m_axis_tready=1
[axis_wb_master 819000] OUTPUT byte=0x00
[spi_axis_adapter 819000] spi_tx_valid=1 data=0x00 spi_tx_ready=1 spi_busy=1 spi_cs_n=0
[SPI 1113000] send_spi_byte (sync): DONE TX=0x00 RX=0xd1
[SPI 1127000] send_spi_byte (sync): TX=0x06 msb_first=1
[spi_slave 1127000] RX byte complete: 0x00 cs=1
[spi_slave 1141000] Loaded tx_shift_reg from holding: 0x00
[spi_axis_adapter 1141000] Received spi_rx_data -> forwarding to m_axis: 0x00
[axis_wb_master 1141000] INT OUTPUT byte=0x00 state=1
[spi_axis_adapter 1155000] m_axis_tdata=0x00 m_axis_tvalid=1 m_axis_tready=1
[spi_axis_adapter 1169000] spi_tx_valid=1 data=0x00 spi_tx_ready=1 spi_busy=1 spi_cs_n=0
[axis_wb_master 1169000] OUTPUT byte=0x00
[SPI 1463000] send_spi_byte (sync): DONE TX=0x06 RX=0x00
[SPI 1477000] send_spi_byte (sync): TX=0x00 msb_first=1
[spi_slave 1477000] RX byte complete: 0x06 cs=1
[spi_axis_adapter 1491000] Received spi_rx_data -> forwarding to m_axis: 0x06
[spi_slave 1491000] Loaded tx_shift_reg from holding: 0x00
[axis_wb_master 1491000] INT OUTPUT byte=0x06 state=1
[spi_axis_adapter 1505000] m_axis_tdata=0x06 m_axis_tvalid=1 m_axis_tready=1
[axis_wb_master 1519000] OUTPUT byte=0x06
[spi_axis_adapter 1519000] spi_tx_valid=1 data=0x06 spi_tx_ready=1 spi_busy=1 spi_cs_n=0
[SPI 1813000] send_spi_byte (sync): DONE TX=0x00 RX=0x00
[SPI 1827000] send_spi_byte (sync): TX=0x00 msb_first=1
[spi_slave 1827000] RX byte complete: 0x00 cs=1
[spi_slave 1841000] Loaded tx_shift_reg from holding: 0x06
[spi_axis_adapter 1841000] Received spi_rx_data -> forwarding to m_axis: 0x00
[axis_wb_master 1841000] INT OUTPUT byte=0x00 state=1
[spi_axis_adapter 1855000] m_axis_tdata=0x00 m_axis_tvalid=1 m_axis_tready=1
[spi_axis_adapter 1869000] spi_tx_valid=1 data=0x00 spi_tx_ready=1 spi_busy=1 spi_cs_n=0
[axis_wb_master 1869000] OUTPUT byte=0x00
[SPI 2163000] send_spi_byte (sync): DONE TX=0x00 RX=0x03
[SPI 2177000] send_spi_byte (sync): TX=0x04 msb_first=1
[spi_slave 2177000] RX byte complete: 0x00 cs=1
[spi_axis_adapter 2191000] Received spi_rx_data -> forwarding to m_axis: 0x00
[spi_slave 2191000] Loaded tx_shift_reg from holding: 0x00
[axis_wb_master 2191000] INT OUTPUT byte=0x00 state=1
[spi_axis_adapter 2205000] m_axis_tdata=0x00 m_axis_tvalid=1 m_axis_tready=1
[axis_wb_master 2219000] OUTPUT byte=0x00
[spi_axis_adapter 2219000] spi_tx_valid=1 data=0x00 spi_tx_ready=1 spi_busy=1 spi_cs_n=0
[SPI 2513000] send_spi_byte (sync): DONE TX=0x04 RX=0x00
[SPI 2527000] send_spi_byte (sync): TX=0x00 msb_first=1
[spi_slave 2527000] RX byte complete: 0x04 cs=1
[spi_slave 2541000] Loaded tx_shift_reg from holding: 0x00
[spi_axis_adapter 2541000] Received spi_rx_data -> forwarding to m_axis: 0x04
[axis_wb_master 2541000] INT OUTPUT byte=0x04 state=1
[spi_axis_adapter 2555000] m_axis_tdata=0x04 m_axis_tvalid=1 m_axis_tready=1
[spi_axis_adapter 2569000] spi_tx_valid=1 data=0x04 spi_tx_ready=1 spi_busy=1 spi_cs_n=0
[axis_wb_master 2569000] OUTPUT byte=0x04
WB_MASTER: adr=00000600 dat=00000000 we=0 sel=1111 stb=1 cyc=1
  MUX->SLAVE5 (VER):   adr=00000600 dat=00000000 we=0 sel=1111 stb=1 cyc=1 ack=0 rdat=00000000
WB_MASTER: adr=00000600 dat=00000000 we=0 sel=1111 stb=1 cyc=1
  MUX->SLAVE5 (VER):   adr=00000600 dat=00000000 we=0 sel=1111 stb=1 cyc=1 ack=1 rdat=deadbeef
[axis_wb_master 2583000] INT OUTPUT byte=0xef state=3
[axis_wb_master 2597000] INT OUTPUT byte=0xbe state=3
[axis_wb_master 2597000] INT OUTPUT byte=0xbe state=3
[SPI 2863000] send_spi_byte (sync): DONE TX=0x00 RX=0x00
[SPI TRX 2863000] Poll RX=0x00 (timeout=0)
[SPI 2877000] send_spi_byte (sync): TX=0x00 msb_first=1
[spi_slave 2877000] RX byte complete: 0x00 cs=1
[spi_axis_adapter 2891000] Received spi_rx_data -> forwarding to m_axis: 0x00
[spi_slave 2891000] Loaded tx_shift_reg from holding: 0x04
[spi_axis_adapter 2905000] spi_tx_valid=1 data=0xef spi_tx_ready=1 spi_busy=1 spi_cs_n=0
[spi_axis_adapter 2905000] m_axis_tdata=0x00 m_axis_tvalid=1 m_axis_tready=0
[axis_wb_master 2905000] OUTPUT byte=0xef
[axis_wb_master 2905000] INT OUTPUT byte=0xad state=3
[axis_wb_master 2905000] INT OUTPUT byte=0xad state=3
[axis_wb_master 2905000] INT OUTPUT byte=0xad state=3
[spi_axis_adapter 2919000] m_axis_tdata=0x00 m_axis_tvalid=1 m_axis_tready=0
[spi_axis_adapter 2933000] m_axis_tdata=0x00 m_axis_tvalid=1 m_axis_tready=0
[spi_axis_adapter 2947000] m_axis_tdata=0x00 m_axis_tvalid=1 m_axis_tready=0
[spi_axis_adapter 2961000] m_axis_tdata=0x00 m_axis_tvalid=1 m_axis_tready=0
[spi_axis_adapter 2975000] m_axis_tdata=0x00 m_axis_tvalid=1 m_axis_tready=0
[spi_axis_adapter 2989000] m_axis_tdata=0x00 m_axis_tvalid=1 m_axis_tready=0
[spi_axis_adapter 3003000] m_axis_tdata=0x00 m_axis_tvalid=1 m_axis_tready=0
[spi_axis_adapter 3017000] m_axis_tdata=0x00 m_axis_tvalid=1 m_axis_tready=0
[spi_axis_adapter 3031000] m_axis_tdata=0x00 m_axis_tvalid=1 m_axis_tready=0
[spi_axis_adapter 3045000] m_axis_tdata=0x00 m_axis_tvalid=1 m_axis_tready=0
[spi_axis_adapter 3059000] m_axis_tdata=0x00 m_axis_tvalid=1 m_axis_tready=0
[spi_axis_adapter 3073000] m_axis_tdata=0x00 m_axis_tvalid=1 m_axis_tready=0
[spi_axis_adapter 3087000] m_axis_tdata=0x00 m_axis_tvalid=1 m_axis_tready=0
[spi_axis_adapter 3101000] m_axis_tdata=0x00 m_axis_tvalid=1 m_axis_tready=0
[spi_axis_adapter 3115000] m_axis_tdata=0x00 m_axis_tvalid=1 m_axis_tready=0
[spi_axis_adapter 3129000] m_axis_tdata=0x00 m_axis_tvalid=1 m_axis_tready=0
[spi_axis_adapter 3143000] m_axis_tdata=0x00 m_axis_tvalid=1 m_axis_tready=0
[spi_axis_adapter 3157000] m_axis_tdata=0x00 m_axis_tvalid=1 m_axis_tready=0
[spi_axis_adapter 3171000] m_axis_tdata=0x00 m_axis_tvalid=1 m_axis_tready=0
[spi_axis_adapter 3185000] m_axis_tdata=0x00 m_axis_tvalid=1 m_axis_tready=0
[spi_axis_adapter 3199000] m_axis_tdata=0x00 m_axis_tvalid=1 m_axis_tready=0
[SPI 3213000] send_spi_byte (sync): DONE TX=0x00 RX=0x02
[SPI TRX 3213000] Poll RX=0x02 (timeout=1)
[spi_axis_adapter 3213000] m_axis_tdata=0x00 m_axis_tvalid=1 m_axis_tready=0
[SPI 3227000] send_spi_byte (sync): TX=0x00 msb_first=1
[spi_slave 3227000] RX byte complete: 0x00 cs=1
[spi_axis_adapter 3227000] m_axis_tdata=0x00 m_axis_tvalid=1 m_axis_tready=0
[spi_slave 3241000] Loaded tx_shift_reg from holding: 0xef
[spi_axis_adapter 3241000] Received spi_rx_data -> forwarding to m_axis: 0x00
[spi_axis_adapter 3241000] m_axis_tdata=0x00 m_axis_tvalid=1 m_axis_tready=0
[axis_wb_master 3255000] OUTPUT byte=0xbe
[spi_axis_adapter 3255000] m_axis_tdata=0x00 m_axis_tvalid=1 m_axis_tready=0
[spi_axis_adapter 3255000] spi_tx_valid=1 data=0xbe spi_tx_ready=1 spi_busy=1 spi_cs_n=0
[axis_wb_master 3255000] INT OUTPUT byte=0xde state=3
[axis_wb_master 3255000] INT OUTPUT byte=0xde state=3
[axis_wb_master 3255000] INT OUTPUT byte=0xde state=3
[spi_axis_adapter 3269000] m_axis_tdata=0x00 m_axis_tvalid=1 m_axis_tready=0
[spi_axis_adapter 3283000] m_axis_tdata=0x00 m_axis_tvalid=1 m_axis_tready=0
[spi_axis_adapter 3297000] m_axis_tdata=0x00 m_axis_tvalid=1 m_axis_tready=0
[spi_axis_adapter 3311000] m_axis_tdata=0x00 m_axis_tvalid=1 m_axis_tready=0
[spi_axis_adapter 3325000] m_axis_tdata=0x00 m_axis_tvalid=1 m_axis_tready=0
[spi_axis_adapter 3339000] m_axis_tdata=0x00 m_axis_tvalid=1 m_axis_tready=0
[spi_axis_adapter 3353000] m_axis_tdata=0x00 m_axis_tvalid=1 m_axis_tready=0
[spi_axis_adapter 3367000] m_axis_tdata=0x00 m_axis_tvalid=1 m_axis_tready=0
[spi_axis_adapter 3381000] m_axis_tdata=0x00 m_axis_tvalid=1 m_axis_tready=0
[spi_axis_adapter 3395000] m_axis_tdata=0x00 m_axis_tvalid=1 m_axis_tready=0
[spi_axis_adapter 3409000] m_axis_tdata=0x00 m_axis_tvalid=1 m_axis_tready=0
[spi_axis_adapter 3423000] m_axis_tdata=0x00 m_axis_tvalid=1 m_axis_tready=0
[spi_axis_adapter 3437000] m_axis_tdata=0x00 m_axis_tvalid=1 m_axis_tready=0
[spi_axis_adapter 3451000] m_axis_tdata=0x00 m_axis_tvalid=1 m_axis_tready=0
[spi_axis_adapter 3465000] m_axis_tdata=0x00 m_axis_tvalid=1 m_axis_tready=0
[spi_axis_adapter 3479000] m_axis_tdata=0x00 m_axis_tvalid=1 m_axis_tready=0
[spi_axis_adapter 3493000] m_axis_tdata=0x00 m_axis_tvalid=1 m_axis_tready=0
[spi_axis_adapter 3507000] m_axis_tdata=0x00 m_axis_tvalid=1 m_axis_tready=0
[spi_axis_adapter 3521000] m_axis_tdata=0x00 m_axis_tvalid=1 m_axis_tready=0
[spi_axis_adapter 3535000] m_axis_tdata=0x00 m_axis_tvalid=1 m_axis_tready=0
[spi_axis_adapter 3549000] m_axis_tdata=0x00 m_axis_tvalid=1 m_axis_tready=0
[SPI 3563000] send_spi_byte (sync): DONE TX=0x00 RX=0xf7
[SPI TRX 3563000] Poll RX=0xf7 (timeout=2)
[spi_axis_adapter 3563000] m_axis_tdata=0x00 m_axis_tvalid=1 m_axis_tready=0
[SPI 3577000] send_spi_byte (sync): TX=0x00 msb_first=1
[spi_slave 3577000] RX byte complete: 0x00 cs=1
[spi_axis_adapter 3577000] m_axis_tdata=0x00 m_axis_tvalid=1 m_axis_tready=0
[spi_axis_adapter 3591000] Received spi_rx_data -> forwarding to m_axis: 0x00
[spi_slave 3591000] Loaded tx_shift_reg from holding: 0xbe
[spi_axis_adapter 3591000] m_axis_tdata=0x00 m_axis_tvalid=1 m_axis_tready=0
[spi_axis_adapter 3605000] spi_tx_valid=1 data=0xad spi_tx_ready=1 spi_busy=1 spi_cs_n=0
[spi_axis_adapter 3605000] m_axis_tdata=0x00 m_axis_tvalid=1 m_axis_tready=0
[axis_wb_master 3605000] OUTPUT byte=0xad
[spi_axis_adapter 3619000] m_axis_tdata=0x00 m_axis_tvalid=1 m_axis_tready=1
[SPI 3913000] send_spi_byte (sync): DONE TX=0x00 RX=0xdf
[SPI TRX 3913000] Poll RX=0xdf (timeout=3)
[SPI 3927000] send_spi_byte (sync): TX=0x00 msb_first=1
[spi_slave 3927000] RX byte complete: 0x00 cs=1
[spi_slave 3941000] Loaded tx_shift_reg from holding: 0xad
[spi_axis_adapter 3941000] Received spi_rx_data -> forwarding to m_axis: 0x00
[axis_wb_master 3955000] OUTPUT byte=0xde
[spi_axis_adapter 3955000] m_axis_tdata=0x00 m_axis_tvalid=1 m_axis_tready=1
[spi_axis_adapter 3955000] spi_tx_valid=1 data=0xde spi_tx_ready=1 spi_busy=1 spi_cs_n=0
[SPI 4263000] send_spi_byte (sync): DONE TX=0x00 RX=0xd6
[SPI TRX 4263000] Poll RX=0xd6 (timeout=4)
[SPI 4277000] send_spi_byte (sync): TX=0x00 msb_first=1
[spi_slave 4277000] RX byte complete: 0x00 cs=1
[spi_axis_adapter 4291000] Received spi_rx_data -> forwarding to m_axis: 0x00
[spi_slave 4291000] Loaded tx_shift_reg from holding: 0xde
[spi_axis_adapter 4305000] m_axis_tdata=0x00 m_axis_tvalid=1 m_axis_tready=1
[SPI 4613000] send_spi_byte (sync): DONE TX=0x00 RX=0xef
[SPI TRX 4613000] Poll RX=0xef (timeout=5)
[SPI 4627000] send_spi_byte (sync): TX=0x00 msb_first=1
[spi_slave 4627000] RX byte complete: 0x00 cs=1
[spi_slave 4641000] tx_shift_reg underflow -> sending 0x00
[spi_axis_adapter 4641000] Received spi_rx_data -> forwarding to m_axis: 0x00
[spi_axis_adapter 4655000] m_axis_tdata=0x00 m_axis_tvalid=1 m_axis_tready=1
[SPI 4963000] send_spi_byte (sync): DONE TX=0x00 RX=0x00
[SPI TRX 4963000] Poll RX=0x00 (timeout=6)
[SPI 4977000] send_spi_byte (sync): TX=0x00 msb_first=1
[spi_slave 4977000] RX byte complete: 0x00 cs=1
[spi_axis_adapter 4991000] Received spi_rx_data -> forwarding to m_axis: 0x00
[spi_slave 4991000] tx_shift_reg underflow -> sending 0x00
[spi_axis_adapter 5005000] m_axis_tdata=0x00 m_axis_tvalid=1 m_axis_tready=1
[SPI 5313000] send_spi_byte (sync): DONE TX=0x00 RX=0x00
[SPI TRX 5313000] Poll RX=0x00 (timeout=7)
[SPI 5327000] send_spi_byte (sync): TX=0x00 msb_first=1
[spi_slave 5327000] RX byte complete: 0x00 cs=1
[spi_slave 5341000] tx_shift_reg underflow -> sending 0x00
[spi_axis_adapter 5341000] Received spi_rx_data -> forwarding to m_axis: 0x00
[spi_axis_adapter 5355000] m_axis_tdata=0x00 m_axis_tvalid=1 m_axis_tready=1
[SPI 5663000] send_spi_byte (sync): DONE TX=0x00 RX=0x00
[SPI TRX 5663000] Poll RX=0x00 (timeout=8)
[SPI 5677000] send_spi_byte (sync): TX=0x00 msb_first=1
[spi_slave 5677000] RX byte complete: 0x00 cs=1
[spi_axis_adapter 5691000] Received spi_rx_data -> forwarding to m_axis: 0x00
[spi_slave 5691000] tx_shift_reg underflow -> sending 0x00
[spi_axis_adapter 5705000] m_axis_tdata=0x00 m_axis_tvalid=1 m_axis_tready=1
[SPI 6013000] send_spi_byte (sync): DONE TX=0x00 RX=0x00
[SPI TRX 6013000] Poll RX=0x00 (timeout=9)
[SPI 6027000] send_spi_byte (sync): TX=0x00 msb_first=1
[spi_slave 6027000] RX byte complete: 0x00 cs=1
[spi_slave 6041000] tx_shift_reg underflow -> sending 0x00
[spi_axis_adapter 6041000] Received spi_rx_data -> forwarding to m_axis: 0x00
[spi_axis_adapter 6055000] m_axis_tdata=0x00 m_axis_tvalid=1 m_axis_tready=1
[SPI 6363000] send_spi_byte (sync): DONE TX=0x00 RX=0x00
[SPI TRX 6363000] Poll RX=0x00 (timeout=10)
[SPI 6377000] send_spi_byte (sync): TX=0x00 msb_first=1
[spi_slave 6377000] RX byte complete: 0x00 cs=1
[spi_axis_adapter 6391000] Received spi_rx_data -> forwarding to m_axis: 0x00
[spi_slave 6391000] tx_shift_reg underflow -> sending 0x00
[spi_axis_adapter 6405000] m_axis_tdata=0x00 m_axis_tvalid=1 m_axis_tready=1
[SPI 6713000] send_spi_byte (sync): DONE TX=0x00 RX=0x00
[SPI TRX 6713000] Poll RX=0x00 (timeout=11)
[SPI 6727000] send_spi_byte (sync): TX=0x00 msb_first=1
[spi_slave 6727000] RX byte complete: 0x00 cs=1
[spi_slave 6741000] tx_shift_reg underflow -> sending 0x00
[spi_axis_adapter 6741000] Received spi_rx_data -> forwarding to m_axis: 0x00
[spi_axis_adapter 6755000] m_axis_tdata=0x00 m_axis_tvalid=1 m_axis_tready=1
[SPI 7063000] send_spi_byte (sync): DONE TX=0x00 RX=0x00
[SPI TRX 7063000] Poll RX=0x00 (timeout=12)
[SPI 7077000] send_spi_byte (sync): TX=0x00 msb_first=1
[spi_slave 7077000] RX byte complete: 0x00 cs=1
[spi_axis_adapter 7091000] Received spi_rx_data -> forwarding to m_axis: 0x00
[spi_slave 7091000] tx_shift_reg underflow -> sending 0x00
[spi_axis_adapter 7105000] m_axis_tdata=0x00 m_axis_tvalid=1 m_axis_tready=1
[SPI 7413000] send_spi_byte (sync): DONE TX=0x00 RX=0x00
[SPI TRX 7413000] Poll RX=0x00 (timeout=13)
[SPI 7427000] send_spi_byte (sync): TX=0x00 msb_first=1
[spi_slave 7427000] RX byte complete: 0x00 cs=1
[spi_slave 7441000] tx_shift_reg underflow -> sending 0x00
[spi_axis_adapter 7441000] Received spi_rx_data -> forwarding to m_axis: 0x00
[spi_axis_adapter 7455000] m_axis_tdata=0x00 m_axis_tvalid=1 m_axis_tready=1
[SPI 7763000] send_spi_byte (sync): DONE TX=0x00 RX=0x00
[SPI TRX 7763000] Poll RX=0x00 (timeout=14)
[SPI 7777000] send_spi_byte (sync): TX=0x00 msb_first=1
[spi_slave 7777000] RX byte complete: 0x00 cs=1
[spi_axis_adapter 7791000] Received spi_rx_data -> forwarding to m_axis: 0x00
[spi_slave 7791000] tx_shift_reg underflow -> sending 0x00
[spi_axis_adapter 7805000] m_axis_tdata=0x00 m_axis_tvalid=1 m_axis_tready=1
[SPI 8113000] send_spi_byte (sync): DONE TX=0x00 RX=0x00
[SPI TRX 8113000] Poll RX=0x00 (timeout=15)
[SPI 8127000] send_spi_byte (sync): TX=0x00 msb_first=1
[spi_slave 8127000] RX byte complete: 0x00 cs=1
[spi_slave 8141000] tx_shift_reg underflow -> sending 0x00
[spi_axis_adapter 8141000] Received spi_rx_data -> forwarding to m_axis: 0x00
[spi_axis_adapter 8155000] m_axis_tdata=0x00 m_axis_tvalid=1 m_axis_tready=1
[SPI 8463000] send_spi_byte (sync): DONE TX=0x00 RX=0x00
[SPI TRX 8463000] Poll RX=0x00 (timeout=16)
[SPI 8477000] send_spi_byte (sync): TX=0x00 msb_first=1
[spi_slave 8477000] RX byte complete: 0x00 cs=1
[spi_axis_adapter 8491000] Received spi_rx_data -> forwarding to m_axis: 0x00
[spi_slave 8491000] tx_shift_reg underflow -> sending 0x00
[spi_axis_adapter 8505000] m_axis_tdata=0x00 m_axis_tvalid=1 m_axis_tready=1
[SPI 8813000] send_spi_byte (sync): DONE TX=0x00 RX=0x00
[SPI TRX 8813000] Poll RX=0x00 (timeout=17)
[SPI 8827000] send_spi_byte (sync): TX=0x00 msb_first=1
[spi_slave 8827000] RX byte complete: 0x00 cs=1
[spi_slave 8841000] tx_shift_reg underflow -> sending 0x00
[spi_axis_adapter 8841000] Received spi_rx_data -> forwarding to m_axis: 0x00
[spi_axis_adapter 8855000] m_axis_tdata=0x00 m_axis_tvalid=1 m_axis_tready=1
[SPI 9163000] send_spi_byte (sync): DONE TX=0x00 RX=0x00
[SPI TRX 9163000] Poll RX=0x00 (timeout=18)
[SPI 9177000] send_spi_byte (sync): TX=0x00 msb_first=1
[spi_slave 9177000] RX byte complete: 0x00 cs=1
[spi_axis_adapter 9191000] Received spi_rx_data -> forwarding to m_axis: 0x00
[spi_slave 9191000] tx_shift_reg underflow -> sending 0x00
[spi_axis_adapter 9205000] m_axis_tdata=0x00 m_axis_tvalid=1 m_axis_tready=1
[SPI 9513000] send_spi_byte (sync): DONE TX=0x00 RX=0x00
[SPI TRX 9513000] Poll RX=0x00 (timeout=19)
[SPI 9527000] send_spi_byte (sync): TX=0x00 msb_first=1
[spi_slave 9527000] RX byte complete: 0x00 cs=1
[spi_slave 9541000] tx_shift_reg underflow -> sending 0x00
[spi_axis_adapter 9541000] Received spi_rx_data -> forwarding to m_axis: 0x00
[spi_axis_adapter 9555000] m_axis_tdata=0x00 m_axis_tvalid=1 m_axis_tready=1
[SPI 9863000] send_spi_byte (sync): DONE TX=0x00 RX=0x00
[SPI TRX 9863000] Poll RX=0x00 (timeout=20)
[SPI 9877000] send_spi_byte (sync): TX=0x00 msb_first=1
[spi_slave 9877000] RX byte complete: 0x00 cs=1
[spi_axis_adapter 9891000] Received spi_rx_data -> forwarding to m_axis: 0x00
[spi_slave 9891000] tx_shift_reg underflow -> sending 0x00
[spi_axis_adapter 9905000] m_axis_tdata=0x00 m_axis_tvalid=1 m_axis_tready=1
[SPI 10213000] send_spi_byte (sync): DONE TX=0x00 RX=0x00
[SPI TRX 10213000] Poll RX=0x00 (timeout=21)
[SPI 10227000] send_spi_byte (sync): TX=0x00 msb_first=1
[spi_slave 10227000] RX byte complete: 0x00 cs=1
[spi_slave 10241000] tx_shift_reg underflow -> sending 0x00
[spi_axis_adapter 10241000] Received spi_rx_data -> forwarding to m_axis: 0x00
[spi_axis_adapter 10255000] m_axis_tdata=0x00 m_axis_tvalid=1 m_axis_tready=1
[SPI 10563000] send_spi_byte (sync): DONE TX=0x00 RX=0x00
[SPI TRX 10563000] Poll RX=0x00 (timeout=22)
[SPI 10577000] send_spi_byte (sync): TX=0x00 msb_first=1
[spi_slave 10577000] RX byte complete: 0x00 cs=1
[spi_axis_adapter 10591000] Received spi_rx_data -> forwarding to m_axis: 0x00
[spi_slave 10591000] tx_shift_reg underflow -> sending 0x00
[spi_axis_adapter 10605000] m_axis_tdata=0x00 m_axis_tvalid=1 m_axis_tready=1
[SPI 10913000] send_spi_byte (sync): DONE TX=0x00 RX=0x00
[SPI TRX 10913000] Poll RX=0x00 (timeout=23)
[SPI 10927000] send_spi_byte (sync): TX=0x00 msb_first=1
[spi_slave 10927000] RX byte complete: 0x00 cs=1
[spi_slave 10941000] tx_shift_reg underflow -> sending 0x00
[spi_axis_adapter 10941000] Received spi_rx_data -> forwarding to m_axis: 0x00
[spi_axis_adapter 10955000] m_axis_tdata=0x00 m_axis_tvalid=1 m_axis_tready=1
[SPI 11263000] send_spi_byte (sync): DONE TX=0x00 RX=0x00
[SPI TRX 11263000] Poll RX=0x00 (timeout=24)
[SPI 11277000] send_spi_byte (sync): TX=0x00 msb_first=1
[spi_slave 11277000] RX byte complete: 0x00 cs=1
[spi_axis_adapter 11291000] Received spi_rx_data -> forwarding to m_axis: 0x00
[spi_slave 11291000] tx_shift_reg underflow -> sending 0x00
[spi_axis_adapter 11305000] m_axis_tdata=0x00 m_axis_tvalid=1 m_axis_tready=1
[SPI 11613000] send_spi_byte (sync): DONE TX=0x00 RX=0x00
[SPI TRX 11613000] Poll RX=0x00 (timeout=25)
[SPI 11627000] send_spi_byte (sync): TX=0x00 msb_first=1
[spi_slave 11627000] RX byte complete: 0x00 cs=1
[spi_slave 11641000] tx_shift_reg underflow -> sending 0x00
[spi_axis_adapter 11641000] Received spi_rx_data -> forwarding to m_axis: 0x00
[spi_axis_adapter 11655000] m_axis_tdata=0x00 m_axis_tvalid=1 m_axis_tready=1
[SPI 11963000] send_spi_byte (sync): DONE TX=0x00 RX=0x00
[SPI TRX 11963000] Poll RX=0x00 (timeout=26)
[SPI 11977000] send_spi_byte (sync): TX=0x00 msb_first=1
[spi_slave 11977000] RX byte complete: 0x00 cs=1
[spi_axis_adapter 11991000] Received spi_rx_data -> forwarding to m_axis: 0x00
[spi_slave 11991000] tx_shift_reg underflow -> sending 0x00
[spi_axis_adapter 12005000] m_axis_tdata=0x00 m_axis_tvalid=1 m_axis_tready=1
[SPI 12313000] send_spi_byte (sync): DONE TX=0x00 RX=0x00
[SPI TRX 12313000] Poll RX=0x00 (timeout=27)
[SPI 12327000] send_spi_byte (sync): TX=0x00 msb_first=1
[spi_slave 12327000] RX byte complete: 0x00 cs=1
[spi_slave 12341000] tx_shift_reg underflow -> sending 0x00
[spi_axis_adapter 12341000] Received spi_rx_data -> forwarding to m_axis: 0x00
[spi_axis_adapter 12355000] m_axis_tdata=0x00 m_axis_tvalid=1 m_axis_tready=1
[SPI 12663000] send_spi_byte (sync): DONE TX=0x00 RX=0x00
[SPI TRX 12663000] Poll RX=0x00 (timeout=28)
[SPI 12677000] send_spi_byte (sync): TX=0x00 msb_first=1
[spi_slave 12677000] RX byte complete: 0x00 cs=1
[spi_axis_adapter 12691000] Received spi_rx_data -> forwarding to m_axis: 0x00
[spi_slave 12691000] tx_shift_reg underflow -> sending 0x00
[spi_axis_adapter 12705000] m_axis_tdata=0x00 m_axis_tvalid=1 m_axis_tready=1
[SPI 13013000] send_spi_byte (sync): DONE TX=0x00 RX=0x00
[SPI TRX 13013000] Poll RX=0x00 (timeout=29)
[SPI 13027000] send_spi_byte (sync): TX=0x00 msb_first=1
[spi_slave 13027000] RX byte complete: 0x00 cs=1
[spi_slave 13041000] tx_shift_reg underflow -> sending 0x00
[spi_axis_adapter 13041000] Received spi_rx_data -> forwarding to m_axis: 0x00
[spi_axis_adapter 13055000] m_axis_tdata=0x00 m_axis_tvalid=1 m_axis_tready=1
[SPI 13363000] send_spi_byte (sync): DONE TX=0x00 RX=0x00
[SPI TRX 13363000] Poll RX=0x00 (timeout=30)
[SPI 13377000] send_spi_byte (sync): TX=0x00 msb_first=1
[spi_slave 13377000] RX byte complete: 0x00 cs=1
[spi_axis_adapter 13391000] Received spi_rx_data -> forwarding to m_axis: 0x00
[spi_slave 13391000] tx_shift_reg underflow -> sending 0x00
[spi_axis_adapter 13405000] m_axis_tdata=0x00 m_axis_tvalid=1 m_axis_tready=1
[SPI 13713000] send_spi_byte (sync): DONE TX=0x00 RX=0x00
[SPI TRX 13713000] Poll RX=0x00 (timeout=31)
[SPI 13727000] send_spi_byte (sync): TX=0x00 msb_first=1
[spi_slave 13727000] RX byte complete: 0x00 cs=1
[spi_slave 13741000] tx_shift_reg underflow -> sending 0x00
[spi_axis_adapter 13741000] Received spi_rx_data -> forwarding to m_axis: 0x00
[spi_axis_adapter 13755000] m_axis_tdata=0x00 m_axis_tvalid=1 m_axis_tready=1
[SPI 14063000] send_spi_byte (sync): DONE TX=0x00 RX=0x00
[SPI TRX 14063000] Poll RX=0x00 (timeout=32)
[SPI 14077000] send_spi_byte (sync): TX=0x00 msb_first=1
[spi_slave 14077000] RX byte complete: 0x00 cs=1
[spi_axis_adapter 14091000] Received spi_rx_data -> forwarding to m_axis: 0x00
[spi_slave 14091000] tx_shift_reg underflow -> sending 0x00
[spi_axis_adapter 14105000] m_axis_tdata=0x00 m_axis_tvalid=1 m_axis_tready=1
[SPI 14413000] send_spi_byte (sync): DONE TX=0x00 RX=0x00
[SPI TRX 14413000] Poll RX=0x00 (timeout=33)
[SPI 14427000] send_spi_byte (sync): TX=0x00 msb_first=1
[spi_slave 14427000] RX byte complete: 0x00 cs=1
[spi_slave 14441000] tx_shift_reg underflow -> sending 0x00
[spi_axis_adapter 14441000] Received spi_rx_data -> forwarding to m_axis: 0x00
[spi_axis_adapter 14455000] m_axis_tdata=0x00 m_axis_tvalid=1 m_axis_tready=1
[SPI 14763000] send_spi_byte (sync): DONE TX=0x00 RX=0x00
[SPI TRX 14763000] Poll RX=0x00 (timeout=34)
[SPI 14777000] send_spi_byte (sync): TX=0x00 msb_first=1
[spi_slave 14777000] RX byte complete: 0x00 cs=1
